// Jest Snapshot v1, https://goo.gl/fbAQLP

exports[`Epic Warning Component when noteable type is epic epic is confidential renders information about confidential epic 1`] = `
<span>
  
    This is a confidential epic.
    People without permission will never get a notification.
    
  <gl-link-stub
    target="_blank"
  >
    
      Learn more
    
  </gl-link-stub>
</span>
`;
